<?xml version="1.0" encoding="utf-8"?>
<!-- Generator: Adobe Illustrator 23.0.2, SVG Export Plug-In . SVG Version: 6.00 Build 0)  -->
<svg version="1.1" id="Layer_1" xmlns="http://www.w3.org/2000/svg" xmlns:xlink="http://www.w3.org/1999/xlink" x="0px" y="0px"
	 viewBox="0 0 180 180" style="enable-background:new 0 0 180 180;" xml:space="preserve">
<style type="text/css">
	.st0{fill:#FFFFFF;}
	.st1{fill:#030F2B;}
</style>
<path class="st0" d="M90,180L90,180c-49.71,0-90-40.29-90-90v0C0,40.29,40.29,0,90,0h0c49.71,0,90,40.29,90,90v0
	C180,139.71,139.71,180,90,180z"/>
<g>
	<g>
		<path class="st1" d="M152.05,89.03c-0.6,0-1.18-0.31-1.52-0.87l0,0c-0.25-0.42-0.32-0.89-0.21-1.35c0.12-0.45,0.41-0.83,0.82-1.08
			c0.85-0.5,1.92-0.23,2.43,0.62c0.25,0.42,0.32,0.89,0.21,1.35c-0.12,0.45-0.41,0.83-0.82,1.08
			C152.67,88.95,152.36,89.03,152.05,89.03z M152.06,86.48c-0.14,0-0.28,0.04-0.41,0.12c-0.18,0.11-0.31,0.27-0.36,0.46
			c-0.05,0.19-0.02,0.4,0.1,0.59l0,0c0.23,0.39,0.68,0.5,1.06,0.27c0.18-0.11,0.31-0.27,0.36-0.46c0.05-0.19,0.01-0.4-0.1-0.58
			C152.57,86.62,152.32,86.48,152.06,86.48z"/>
		<path class="st1" d="M133.08,121.32c-3.56,0-7.07-0.76-10.61-2.28c-3.84-1.65-6.96-1.17-10.46,0.06
			c-0.22,0.08-0.46-0.01-0.59-0.21c-1.81-2.86-5.31-9.38-6.8-12.16l-0.24-0.44c-0.11-0.05-0.21-0.14-0.26-0.25
			c-0.04-0.07-0.32-0.64-0.1-0.98v0c0.3-0.46,0.66-0.69,0.97-0.9c0.17-0.11,0.33-0.21,0.5-0.37c1.34-1.26,2.28-2.7,3.14-4.83
			c0.22-0.55,0.53-1,0.93-1.37c0.02-0.07,0.03-0.19,0.03-0.3c0.01-0.15,0.01-0.3,0.04-0.45c1.41-7.08,4-14.91,12.48-19.37
			c10.54-5.55,21.35-3.62,30.44,5.45c0.02,0.02,0.03,0.03,0.04,0.05c1.04,0.15,2.04,0.68,2.82,1.57c1.09,1.24,1.2,2.98,0.7,4.07
			c0.21,0.75,0.34,1.21,0.39,1.5l0.06,0.19c1.71,5.48,1.6,21.55-8.81,27C142.61,119.98,137.79,121.32,133.08,121.32z M117.59,116.97
			c1.67,0,3.39,0.33,5.28,1.15c7.93,3.4,15.69,2.86,24.42-1.71c9.89-5.18,9.96-20.57,8.32-25.82l-0.13-0.41
			c-0.01-0.02-0.01-0.04-0.02-0.06c0-0.01-0.01-0.02-0.01-0.02l0,0c-0.02-0.08-0.03-0.16-0.03-0.22c-0.06-0.23-0.17-0.6-0.33-1.18
			c-0.04-0.13-0.02-0.27,0.05-0.39c0.43-0.75,0.37-2.15-0.48-3.11c-0.89-1.01-2.45-1.7-3.94-0.97c-0.91,0.44-1.53,1.11-1.82,1.94
			c-0.29,0.86-0.2,1.86,0.28,2.82c0.39,0.8,1.09,1.19,2.1,1.55c0.08,0,0.27,0.02,0.46,0.15c0.1,0.07,0.17,0.17,0.2,0.29
			c2.71,10.48-0.32,18.73-8.54,23.21c-8.93,4.88-19.13,2.62-25.99-5.74c-1.37-1.67-1.89-3.53-2.38-5.33
			c-0.12-0.42-0.24-0.85-0.37-1.28c-0.03-0.1-0.03-0.21,0-0.3c0.03-0.1,0.07-0.21,0.08-0.3c0.29-1.41,0.1-2.25-0.7-2.99
			c-0.83-0.77-2.07-0.89-3.23-0.32c-0.59,0.29-1.01,0.75-1.27,1.41c-0.92,2.27-1.93,3.83-3.38,5.19v0
			c-0.22,0.21-0.44,0.35-0.64,0.48c-0.2,0.13-0.37,0.24-0.51,0.39c0.03,0.03,0.05,0.06,0.07,0.09l0.42,0.78
			c1.43,2.67,4.72,8.78,6.56,11.76C113.94,117.39,115.73,116.97,117.59,116.97z M115.67,101.69c0.12,0.39,0.22,0.77,0.33,1.15
			c0.49,1.78,0.96,3.45,2.19,4.96c6.54,7.97,16.25,10.13,24.73,5.5c5.46-2.98,11.28-9.18,8.12-21.81c-0.03-0.01-0.07-0.02-0.1-0.03
			c-1.04-0.38-2.08-0.89-2.65-2.05c-0.53-1.09-0.68-2.23-0.42-3.26c-6.99-6.62-15.13-7.97-22.96-3.79
			c-5.46,2.91-8.41,7.8-9.56,15.86c0.7,1.08,0.59,2.26,0.39,3.21C115.72,101.51,115.7,101.6,115.67,101.69z M105.83,104.15
			L105.83,104.15L105.83,104.15z M112.3,96.56c0.79,0,1.55,0.25,2.18,0.73c1.28-7.93,4.38-12.83,9.96-15.81
			c8.13-4.34,16.57-3.03,23.83,3.68c0.43-0.77,1.12-1.4,2.02-1.84c0.3-0.15,0.62-0.25,0.94-0.32c-8.61-8.2-18.75-9.86-28.64-4.66
			c-8.06,4.24-10.57,11.75-11.94,18.56C111.19,96.67,111.75,96.56,112.3,96.56z"/>
		<path class="st1" d="M111.94,102.49c-0.63,0-1.23-0.32-1.55-0.91l0,0c-0.23-0.41-0.28-0.88-0.15-1.32
			c0.14-0.46,0.46-0.85,0.9-1.09c0.89-0.48,1.97-0.19,2.45,0.67c0.23,0.41,0.29,0.88,0.16,1.33c-0.13,0.46-0.46,0.85-0.9,1.09
			C112.55,102.41,112.24,102.49,111.94,102.49z M111.27,101.1c0.24,0.44,0.74,0.47,1.1,0.28c0.21-0.11,0.36-0.29,0.42-0.49
			c0.05-0.18,0.03-0.38-0.07-0.56c-0.22-0.39-0.68-0.51-1.1-0.28c-0.21,0.11-0.36,0.29-0.42,0.5
			C111.15,100.73,111.17,100.92,111.27,101.1L111.27,101.1z"/>
	</g>
	<g>
		<path class="st1" d="M31.37,64.83c-0.44,0-0.86-0.17-1.19-0.49c-0.69-0.68-0.7-1.75-0.01-2.49c0.33-0.36,0.77-0.56,1.24-0.58
			c0.45-0.03,0.9,0.16,1.24,0.48c0.33,0.32,0.52,0.74,0.54,1.19c0.01,0.48-0.17,0.95-0.52,1.31c-0.34,0.36-0.79,0.57-1.27,0.58
			C31.39,64.83,31.38,64.83,31.37,64.83z M31.47,62.28c-0.01,0-0.02,0-0.02,0c-0.2,0.01-0.39,0.1-0.54,0.26
			c-0.27,0.29-0.36,0.76-0.02,1.09c0.14,0.14,0.32,0.24,0.5,0.2c0.21,0,0.41-0.1,0.57-0.26c0.16-0.17,0.25-0.39,0.24-0.6
			c-0.01-0.19-0.08-0.36-0.22-0.49C31.82,62.35,31.65,62.28,31.47,62.28z"/>
		<path class="st1" d="M60.58,102.82c-0.12,0-0.25-0.05-0.35-0.14c-2.53-2.46-5.27-3.25-9.17-2.66c-8.11,1.23-16.53,1.32-23.18-6.3
			c-7.14-8.18-7.46-19.08-0.85-29.91c0.04-0.09,0.05-0.12,0.07-0.18c-0.03-1.81,0.53-3.11,1.69-3.97c0.95-0.7,2.02-1.02,3.04-0.95
			c0.02-0.02,0.04-0.03,0.06-0.05c11.16-7.16,21.95-6.9,31.2,0.75c6.18,5.11,8.1,12.05,6.05,21.84c-0.03,0.14-0.07,0.28-0.11,0.41
			c-0.04,0.12-0.07,0.23-0.09,0.32c0.25,0.47,0.38,1.01,0.38,1.62c0.03,2.13,0.49,4.06,1.36,5.73c0.29,0.56,0.8,1.18,0.95,1.36
			l0.02,0.03c0.01,0.01,0.02,0.02,0.03,0.03c0.01,0.01,0.01,0.02,0.02,0.03l0.02,0.03l0,0c0.14,0.22,0.14,0.55-0.05,0.71
			c-0.05,0.04-0.11,0.06-0.17,0.07c-3.2,3.57-6.58,7.02-9.86,10.36l-0.69,0.71C60.84,102.77,60.71,102.82,60.58,102.82z
			 M53.34,98.84c2.84,0,5.14,0.9,7.23,2.78l0.35-0.36c3.23-3.29,6.57-6.7,9.72-10.2c-0.24-0.31-0.6-0.8-0.84-1.26
			c-0.94-1.81-1.44-3.89-1.47-6.17c-0.01-0.71-0.22-1.26-0.67-1.71c-0.85-0.85-2.04-1.07-3.1-0.55c-1.06,0.51-1.61,1.33-1.77,2.65
			c-0.01,0.1-0.02,0.22-0.03,0.33c0,0.1-0.04,0.21-0.11,0.29c-0.52,0.65-0.97,1.35-1.44,2.1c-0.82,1.29-1.66,2.62-2.9,3.64
			c-6.7,5.54-16.94,8.83-25.58,1.45c-6.92-5.91-7.72-15.3-2.13-25.12c0.04-0.08,0.11-0.14,0.19-0.19c0.25-0.14,0.47-0.11,0.57-0.1
			c1.14-0.14,1.86-0.47,2.38-1.1c0.72-0.87,1.06-1.86,0.96-2.78c-0.09-0.84-0.54-1.59-1.29-2.19c-1.38-1.08-2.97-0.65-4,0.11
			c-0.92,0.68-1.32,1.71-1.29,3.24c0,0.06-0.01,0.12-0.03,0.17c-0.05,0.16-0.06,0.18-0.17,0.41c-6.39,10.47-6.11,20.94,0.73,28.78
			c6.33,7.25,14.45,7.16,22.28,5.97C51.76,98.91,52.57,98.84,53.34,98.84z M31.33,67.42c-5.2,9.29-4.45,18.11,2.03,23.65
			c8.17,6.98,17.91,3.82,24.3-1.46c1.11-0.92,1.91-2.18,2.69-3.41c0.44-0.7,0.9-1.41,1.41-2.07c0.01-0.09,0.01-0.18,0.02-0.25
			c0.16-1.28,0.66-2.25,1.52-2.92c2.24-7.78,0.97-13.32-3.98-17.4c-6.89-5.69-15.05-5.94-23.62-0.73c0.01,1.07-0.41,2.17-1.21,3.13
			c-0.88,1.07-2.1,1.34-3.06,1.46C31.42,67.42,31.38,67.42,31.33,67.42z M65.74,80.08c0.87,0,1.73,0.32,2.43,0.95
			c1.99-9.5,0.23-15.93-5.71-20.84c-8.69-7.18-18.8-7.57-29.29-1.14c0.3,0.13,0.58,0.3,0.85,0.51c0.77,0.61,1.29,1.35,1.53,2.19
			c8.84-5.22,17.27-4.87,24.42,1.03c5.09,4.2,6.55,9.79,4.56,17.51C64.92,80.16,65.34,80.08,65.74,80.08z"/>
		<path class="st1" d="M65.57,86.1c-0.02,0-0.04,0-0.06,0c-0.48-0.02-0.93-0.22-1.27-0.59c-0.34-0.36-0.51-0.82-0.49-1.3
			c0.02-0.47,0.24-0.91,0.6-1.24c0.76-0.68,1.85-0.64,2.53,0.08c0.69,0.74,0.65,1.85-0.09,2.55C66.45,85.93,66.01,86.1,65.57,86.1z
			 M65.59,83.5c-0.2,0-0.4,0.08-0.58,0.24c-0.16,0.14-0.26,0.33-0.27,0.53c-0.01,0.2,0.07,0.4,0.22,0.57
			c0.16,0.17,0.36,0.27,0.57,0.27c0.2,0.01,0.4-0.07,0.56-0.22h0c0.34-0.32,0.36-0.8,0.05-1.14C65.99,83.58,65.79,83.5,65.59,83.5z"
			/>
	</g>
	<path class="st1" d="M83.76,113.07c-0.02,0-0.04,0-0.07,0c-0.27-0.04-0.47-0.29-0.43-0.56c0.24-1.8-0.24-2.92-1.6-3.74
		c-0.55-0.33-1.4-0.75-2.08-1.08l-0.58-0.29c-0.9-0.45-1.59-0.42-2.63-0.18c-0.28,0.06-0.54-0.11-0.6-0.38
		c-0.06-0.27,0.11-0.54,0.38-0.6c1.21-0.27,2.14-0.31,3.3,0.27l0.57,0.28c0.73,0.36,1.56,0.77,2.15,1.12
		c1.71,1.03,2.38,2.54,2.08,4.73C84.22,112.88,84,113.07,83.76,113.07z"/>
	<path class="st1" d="M79.94,116.03c-0.64,0-1.28-0.16-1.95-0.47c-0.78-0.36-1.94-0.99-2.7-1.41c-2.01-1.12-2.67-3.3-1.74-5.68
		c0,0,0,0,0-0.01c0.06-0.15,0.17-0.31,0.24-0.43c0.14-0.24,0.47-0.35,0.71-0.2c0.24,0.14,0.33,0.41,0.19,0.65l-0.07,0.11
		c-0.04,0.06-0.12,0.19-0.15,0.24c0,0.01,0,0.01-0.01,0.02c-0.39,1.04-0.88,3.2,1.3,4.42c0.74,0.42,1.88,1.03,2.64,1.38
		c1.33,0.62,2.43,0.48,3.81-0.48c0.23-0.16,0.54-0.1,0.7,0.12c0.16,0.23,0.1,0.54-0.12,0.7C81.81,115.69,80.88,116.03,79.94,116.03z
		"/>
	<path class="st1" d="M81.8,112.04c-0.21,0-0.41-0.13-0.47-0.34l-0.09-0.27c-0.13-0.44-0.17-0.57-0.61-0.81
		c-0.41-0.23-0.97-0.51-1.52-0.79c-0.4-0.21-0.8-0.41-1.14-0.59c-0.09-0.04-0.16-0.06-0.24-0.09l0.25-0.97l-0.15,0.48l0.19-0.46
		c0.14,0.04,0.25,0.08,0.41,0.16c0.33,0.18,0.73,0.38,1.12,0.58c0.57,0.29,1.14,0.58,1.56,0.81c0.78,0.44,0.92,0.88,1.07,1.39
		l0.08,0.25c0.09,0.26-0.05,0.54-0.32,0.63C81.9,112.03,81.85,112.04,81.8,112.04z"/>
	<path class="st1" d="M79.95,113.94c-0.29,0-0.59-0.05-0.96-0.25c-0.28-0.15-0.58-0.3-0.89-0.46c-0.61-0.32-1.26-0.65-1.79-0.95
		c-1.12-0.63-1.18-1.6-1.1-2.37c0.03-0.28,0.29-0.46,0.54-0.45c0.28,0.03,0.48,0.27,0.45,0.54c-0.07,0.77,0.07,1.11,0.6,1.41
		c0.52,0.29,1.15,0.62,1.75,0.93c0.32,0.16,0.62,0.32,0.91,0.47c0.3,0.16,0.47,0.14,0.87,0.11l0.11,0.49l-0.02,0.5
		C80.26,113.93,80.11,113.94,79.95,113.94z"/>
	<path class="st1" d="M93.67,115.37c-0.17,0-0.33-0.09-0.43-0.24c-0.71-1.17-1.37-1.67-2.52-1.9c-0.8-0.16-2.08-0.36-2.98-0.48
		c-1.05-0.14-1.71,0.12-2.61,0.7c-0.24,0.15-0.54,0.08-0.69-0.15c-0.15-0.23-0.08-0.54,0.15-0.69c1.06-0.68,1.94-1.03,3.29-0.85
		c0.92,0.12,2.22,0.32,3.04,0.49c1.65,0.33,2.46,1.18,3.18,2.36c0.14,0.24,0.07,0.54-0.17,0.69
		C93.85,115.35,93.76,115.37,93.67,115.37z"/>
	<path class="st1" d="M90.03,120.87c-0.18,0-0.36-0.01-0.54-0.02c-0.94-0.08-2.24-0.29-3.09-0.48c-2.39-0.56-3.6-2.25-3.49-4.87
		c0,0,0-0.01,0-0.01c0.01-0.11,0.03-0.21,0.05-0.27c0.03-0.27,0.29-0.5,0.56-0.47c0.27,0.03,0.48,0.25,0.45,0.52
		c-0.01,0.07-0.03,0.14-0.04,0.21c0,0.04-0.01,0.08-0.02,0.11c-0.07,2.12,0.82,3.36,2.72,3.8c0.79,0.19,2.06,0.38,2.95,0.46
		c1.98,0.18,3.25-0.74,3.9-2.78c0.03-0.16,0.15-0.3,0.32-0.37c0.25-0.09,0.54,0.04,0.64,0.29c0.04,0.11,0.05,0.22,0.01,0.33
		C93.72,119.65,92.2,120.87,90.03,120.87z"/>
	<path class="st1" d="M91.11,115.57c-0.07,0-0.13-0.02-0.2-0.05c-0.26-0.13-0.33-0.17-0.51-0.2c-0.97-0.16-2.06-0.33-3.03-0.48
		c-0.18-0.03-0.25-0.02-0.45,0.01c0,0-0.1,0.01-0.1,0.01c-0.27,0.04-0.53-0.15-0.57-0.42c-0.04-0.27,0.15-0.53,0.42-0.57l0.07,0.49
		l0.02-0.51c0.23-0.04,0.42-0.07,0.75-0.01c0.97,0.15,2.07,0.33,3.04,0.49c0.33,0.06,0.51,0.15,0.72,0.25
		c0.25,0.13,0.38,0.45,0.26,0.69C91.45,115.46,91.29,115.57,91.11,115.57z"/>
	<path class="st1" d="M90.2,118.78c-0.12,0-0.25-0.01-0.39-0.03c-0.42-0.06-1.89-0.26-3.04-0.48c-1.31-0.25-1.67-1.22-1.83-1.93
		c-0.06-0.27,0.11-0.54,0.38-0.6c0.27-0.06,0.54,0.11,0.6,0.38c0.17,0.75,0.44,1.05,1.04,1.17c0.9,0.17,2.13,0.36,2.99,0.48
		c0.63,0.08,0.92-0.13,1.37-0.69c0.17-0.21,0.49-0.25,0.7-0.08c0.22,0.17,0.25,0.49,0.08,0.7C91.65,118.25,91.14,118.78,90.2,118.78
		z"/>
	<path class="st1" d="M98.75,119.64c-1.51,0-2.77-0.74-3.76-2.22c-0.15-0.23-0.09-0.54,0.14-0.69c0.23-0.15,0.54-0.09,0.69,0.14
		c1.11,1.66,2.53,2.14,4.43,1.51c0.84-0.28,2.33-0.85,3.07-1.2c1.62-0.76,3.05-2.31,2.19-4.4c-1.06-2.58-3.86-1.97-4.69-1.73
		c-0.84,0.25-2.47,0.95-3,1.18c-1.23,0.53-1.87,1.31-2.26,2.78c-0.07,0.27-0.34,0.43-0.61,0.35c-0.27-0.07-0.42-0.35-0.35-0.61
		c0.47-1.76,1.32-2.79,2.84-3.44c1.49-0.64,2.51-1.04,3.11-1.22c2.65-0.79,4.87,0.03,5.83,2.14c0.04,0.04,0.07,0.08,0.09,0.14
		c0.03,0.07,0.05,0.14,0.05,0.21c0.8,2.19-0.27,4.33-2.76,5.5c-0.79,0.37-2.31,0.95-3.18,1.24
		C99.93,119.53,99.32,119.64,98.75,119.64z"/>
	<path class="st1" d="M77.35,111.46c-0.41,0-0.82-0.19-1.14-0.56c-1.7-1.94-3.64-4.18-5.33-6.13c-0.58-0.67-0.56-1.54,0.03-2.17
		c0.01-0.02,0.03-0.04,0.04-0.06c0.04-0.05,0.1-0.1,0.16-0.13c0.29-0.23,0.63-0.34,0.98-0.33c0.41,0.02,0.8,0.23,1.13,0.6
		c1.72,1.95,3.7,4.21,5.35,6.2c0.55,0.65,0.52,1.46-0.04,2.05c-0.03,0.06-0.07,0.11-0.12,0.16c-0.05,0.04-0.1,0.07-0.16,0.09
		C77.95,111.36,77.65,111.46,77.35,111.46z M71.68,103.23C71.68,103.23,71.68,103.23,71.68,103.23c-0.17,0.16-0.4,0.48-0.05,0.88
		c1.69,1.95,3.63,4.19,5.33,6.13c0.15,0.17,0.4,0.37,0.77,0.05c0,0,0,0,0,0c0.37-0.32,0.22-0.6,0.06-0.78
		c-1.65-1.97-3.62-4.23-5.33-6.18c-0.1-0.11-0.25-0.25-0.43-0.26C71.92,103.05,71.8,103.12,71.68,103.23z"/>
	<path class="st1" d="M87.04,117.39c-0.26,0-0.54-0.07-0.82-0.22l-1.59-0.88c-1.84-1.02-3.8-2.11-5.56-3.05
		c-0.5-0.27-0.7-0.64-0.78-0.9c-0.1-0.34-0.06-0.72,0.1-1.08c0.01-0.04,0.02-0.08,0.04-0.11c0.02-0.05,0.05-0.09,0.09-0.12
		c0.46-0.71,1.26-0.92,2.03-0.52c2.32,1.2,4.94,2.64,7.19,3.95c0.74,0.43,1,1.2,0.67,1.95c-0.01,0.06-0.03,0.12-0.06,0.18
		c-0.03,0.06-0.07,0.11-0.12,0.14C87.94,117.16,87.51,117.39,87.04,117.39z M79.34,111.62L79.34,111.62
		c-0.09,0.16-0.12,0.31-0.08,0.43c0.03,0.11,0.13,0.22,0.29,0.3c1.76,0.95,3.72,2.03,5.57,3.06l1.59,0.88
		c0.21,0.12,0.51,0.22,0.75-0.21l0,0c0.27-0.49-0.09-0.7-0.21-0.77c-2.24-1.3-4.85-2.74-7.15-3.93
		C79.98,111.32,79.61,111.13,79.34,111.62z"/>
	<path class="st1" d="M89.94,118.05c-0.47,0-0.79-0.17-0.97-0.32c-0.27-0.22-0.44-0.54-0.5-0.93c-0.02-0.04-0.03-0.08-0.03-0.13
		c0-0.02,0-0.04,0-0.05c0-0.03,0-0.07,0.01-0.1c-0.02-0.85,0.52-1.46,1.41-1.56c2.8-0.33,6.16-0.68,8.44-0.91
		c0.63-0.07,1.02,0.14,1.25,0.32c0.25,0.21,0.41,0.5,0.48,0.84c0.03,0.05,0.05,0.12,0.06,0.18c0.01,0.08,0,0.15-0.02,0.22
		c-0.02,0.8-0.59,1.4-1.48,1.51c-2.8,0.35-6.15,0.69-8.42,0.92C90.08,118.04,90.01,118.05,89.94,118.05z M89.45,116.57
		c0.01,0.12,0.05,0.29,0.16,0.38c0.12,0.1,0.3,0.1,0.44,0.09c2.27-0.22,5.6-0.56,8.4-0.91c0.43-0.05,0.63-0.27,0.6-0.64
		c-0.01-0.16-0.07-0.28-0.15-0.36c-0.13-0.11-0.34-0.11-0.5-0.1c-2.28,0.23-5.63,0.58-8.43,0.91
		C89.7,115.97,89.4,116.07,89.45,116.57z"/>
	<path class="st1" d="M105.5,112.25c-0.09,0-0.19-0.03-0.27-0.08c-0.23-0.15-0.3-0.46-0.15-0.69l0.05-0.08
		c0.09-0.14,0.19-0.32,0.4-0.47c0.82-0.61,1.75-0.6,2.53,0.03c0.21,0.17,0.25,0.49,0.08,0.7c-0.17,0.22-0.49,0.25-0.7,0.08
		c-0.43-0.35-0.85-0.35-1.31-0.01c-0.04,0.03-0.08,0.09-0.14,0.19l-0.07,0.11C105.83,112.17,105.67,112.25,105.5,112.25z"/>
	<path class="st1" d="M106.67,114.04c-0.18,0-0.36-0.02-0.54-0.07c-0.27-0.07-0.43-0.35-0.35-0.61c0.07-0.27,0.34-0.42,0.61-0.35
		c0.33,0.09,0.68,0.02,0.92-0.2c0.22-0.19,0.27-0.36,0.3-0.75c0.02-0.28,0.26-0.5,0.53-0.46c0.28,0.02,0.48,0.26,0.46,0.53
		c-0.03,0.47-0.11,0.97-0.64,1.43C107.61,113.87,107.15,114.04,106.67,114.04z"/>
	<path class="st1" d="M98.91,117.56c-0.41,0-0.73-0.14-1.1-0.29l-0.19-0.08c-0.25-0.11-0.38-0.4-0.27-0.65
		c0.11-0.25,0.4-0.37,0.65-0.27l0.2,0.08c0.54,0.23,0.71,0.3,1.28,0.08l0.21-0.08c0.84-0.32,2.06-0.79,2.91-1.14
		c0.39-0.16,0.69-0.45,0.83-0.79c0.11-0.27,0.11-0.55-0.01-0.82c0,0,0,0,0,0c-0.31-0.74-1.11-0.84-1.76-0.62
		c-0.64,0.22-1.38,0.52-2.08,0.8c-0.35,0.14-0.7,0.28-1.01,0.4c-0.27,0.11-0.36,0.2-0.57,0.42l-0.12,0.12
		c-0.19,0.2-0.5,0.21-0.71,0.02c-0.2-0.19-0.21-0.51-0.02-0.71l0.11-0.12c0.24-0.26,0.45-0.49,0.94-0.67c0.31-0.12,0.65-0.26,1-0.4
		c0.72-0.29,1.48-0.6,2.13-0.82c1.27-0.44,2.48,0.02,2.98,1.11c0.04,0.06,0.06,0.12,0.08,0.18c0.17,0.49,0.16,0.99-0.03,1.48
		c-0.24,0.58-0.74,1.07-1.37,1.33c-0.85,0.35-2.08,0.82-2.93,1.15l-0.21,0.08C99.47,117.51,99.17,117.56,98.91,117.56z"/>
	<path class="st1" d="M72.01,108.24c-0.98,0-2.03-0.33-3.02-1.36c-0.62-0.64-1.59-1.9-2.08-2.63c-1.52-2.26-1.4-4.83,0.27-6.43
		c0.05-0.08,0.12-0.14,0.21-0.19c0.79-0.66,1.73-0.98,2.71-0.92c1.22,0.07,2.44,0.71,3.35,1.77c0.52,0.6,1.54,1.82,2.09,2.56
		c1.2,1.59,1.31,3.24,0.35,5.17c-0.12,0.25-0.42,0.35-0.67,0.22c-0.25-0.12-0.35-0.42-0.22-0.67c0.8-1.6,0.72-2.83-0.25-4.12
		c-0.49-0.65-1.47-1.84-2.05-2.5c-0.74-0.85-1.71-1.37-2.66-1.43c-0.79-0.05-1.51,0.23-2.12,0.79c-1.68,1.54-1.15,3.76-0.18,5.2
		c0.47,0.69,1.41,1.91,1.97,2.49c1.06,1.1,2.21,1.31,3.96,0.74c0.26-0.08,0.54,0.06,0.63,0.32c0.09,0.26-0.06,0.54-0.32,0.63
		C73.38,108.07,72.71,108.24,72.01,108.24z"/>
	<path class="st1" d="M72.34,106.2c-0.02,0-0.04,0-0.05,0l-0.15-0.02c-0.53-0.05-1.02-0.1-1.57-0.71c-0.77-0.86-1.54-1.83-2.07-2.58
		c-0.77-1.09-0.71-2.4,0.12-3.22c0.03-0.05,0.07-0.09,0.12-0.12c0.02-0.02,0.05-0.03,0.08-0.05c0.41-0.33,0.89-0.49,1.38-0.45
		c0.61,0.04,1.21,0.35,1.67,0.88c0.37,0.42,0.77,0.92,1.16,1.41c0.32,0.4,0.63,0.8,0.92,1.13c0.5,0.58,0.51,1.03,0.53,1.54l0,0.13
		c0.01,0.28-0.2,0.51-0.48,0.52c-0.28-0.01-0.51-0.2-0.52-0.48l0-0.13c-0.02-0.46-0.02-0.61-0.29-0.93
		c-0.29-0.34-0.62-0.75-0.94-1.16c-0.38-0.48-0.77-0.96-1.13-1.37c-0.29-0.33-0.65-0.52-0.98-0.54c-0.27-0.01-0.53,0.08-0.76,0.29
		l0,0c-0.62,0.55-0.47,1.39-0.05,1.98c0.6,0.85,1.43,1.85,2,2.5c0.28,0.32,0.44,0.33,0.92,0.38l0.16,0.02
		c0.27,0.03,0.47,0.28,0.44,0.55C72.81,106.01,72.59,106.2,72.34,106.2z"/>
	<path class="st1" d="M66.56,99.48c-0.54,0-1-0.21-1.41-0.64c-0.3-0.32-0.43-0.7-0.51-1c-0.07-0.27,0.09-0.54,0.36-0.61
		c0.27-0.07,0.54,0.09,0.61,0.36c0.07,0.27,0.15,0.44,0.26,0.56c0.26,0.27,0.51,0.36,0.86,0.31c0.27-0.03,0.53,0.15,0.56,0.43
		c0.04,0.27-0.15,0.53-0.43,0.56C66.77,99.48,66.66,99.48,66.56,99.48z"/>
	<path class="st1" d="M67.71,98.24c0,0-0.01,0-0.01,0c-0.28-0.01-0.49-0.24-0.49-0.51c0.01-0.25-0.11-0.56-0.28-0.76
		c-0.14-0.16-0.22-0.2-0.46-0.29l0.13-0.49l0.19-0.46l-0.19,0.46l0.25-0.44c0.29,0.12,0.55,0.22,0.84,0.57
		c0.33,0.39,0.53,0.93,0.52,1.43C68.21,98.02,67.99,98.24,67.71,98.24z"/>
	<g>
		<path class="st1" d="M60.62,105.41c-0.12,0-0.24-0.04-0.33-0.12c-2.84-2.51-5.58-3.31-9.15-2.66c-9.83,1.78-16.98-0.13-23.21-6.19
			c-3.55-3.46-5.38-8.01-5.92-14.75c-0.03-0.41-0.01-0.96,0.02-1.48c0.02-0.42,0.04-0.83,0.03-1.15l0.45-2.89
			c0.04-0.27,0.3-0.46,0.57-0.42c0.27,0.04,0.46,0.3,0.42,0.57l-0.44,2.8c0.02,0.25,0,0.69-0.02,1.14c-0.02,0.5-0.05,1.01-0.02,1.36
			c0.52,6.48,2.25,10.84,5.62,14.12c5.97,5.81,12.86,7.64,22.33,5.92c3.71-0.67,6.7,0.13,9.64,2.59l1.34-1.29
			c1.24-1.19,2.49-2.38,3.71-3.6c0.2-0.19,0.51-0.19,0.71,0c0.19,0.2,0.19,0.51,0,0.71c-1.23,1.22-2.47,2.41-3.72,3.61l-1.67,1.6
			C60.87,105.37,60.74,105.41,60.62,105.41z M67.8,98.34c-0.12,0-0.25-0.04-0.34-0.13c-0.2-0.19-0.21-0.5-0.02-0.71l0.28-0.29
			c1.1-1.18,2.14-2.29,3.2-3.49l0-0.63c0-0.57,0-1.28,0-1.59c0-0.27,0.23-0.5,0.5-0.5c0,0,0,0,0,0c0.28,0,0.5,0.23,0.5,0.5
			c0,0.31,0,1.02,0,1.59l0,0.83c0,0.01,0,0.02,0,0.03l0,0.04c-0.01,0.14-0.06,0.28-0.15,0.36c-0.05,0.05-0.11,0.09-0.17,0.11
			c-1.05,1.18-2.07,2.28-3.15,3.43l-0.27,0.29C68.07,98.28,67.93,98.34,67.8,98.34z M27.58,77.95c-0.04,0-0.07,0-0.11-0.01
			c-0.27-0.06-0.44-0.33-0.38-0.59c0.63-2.91,1.74-5.49,3.49-8.11c0.08-0.13,0.22-0.21,0.38-0.22c0.07-0.01,0.15,0,0.23,0
			c1.19-0.12,1.88-0.44,2.54-1.12c0.69-0.72,1.03-1.65,1.02-2.75c0-0.12,0.04-0.23,0.1-0.31c0.04-0.05,0.09-0.1,0.14-0.14
			c8.76-5.53,17.22-5.35,25.13,0.54c3.29,2.45,4.21,5.48,5.15,9.49c0.06,0.27-0.1,0.54-0.37,0.6c-0.27,0.06-0.54-0.1-0.6-0.37
			c-0.89-3.8-1.75-6.67-4.77-8.92c-7.48-5.57-15.49-5.78-23.79-0.63c-0.04,1.25-0.48,2.34-1.29,3.18c-0.83,0.86-1.72,1.28-3.07,1.43
			c-0.04,0-0.09,0.01-0.12,0c-1.59,2.43-2.61,4.84-3.2,7.54C28.02,77.79,27.81,77.95,27.58,77.95z"/>
	</g>
	<g>
		<path class="st1" d="M134.1,123.93c-3.65,0-7.51-0.77-11.63-2.3c-3.87-1.44-7.08-1.4-10.41,0.14c-0.23,0.11-0.51,0.02-0.64-0.2
			c-1.46-2.43-3.02-5.03-4.46-7.67c-0.13-0.24-0.04-0.55,0.2-0.68c0.24-0.13,0.54-0.05,0.68,0.2c1.36,2.48,2.82,4.94,4.21,7.25
			c3.44-1.48,6.78-1.47,10.76,0.01c9.35,3.48,17.33,2.89,24.38-1.8c6.22-4.14,9.33-10.4,9.78-19.72c0-0.03,0.13-2.02-0.88-6.09
			c-0.07-0.27,0.1-0.54,0.37-0.61c0.27-0.07,0.54,0.1,0.61,0.37c1.05,4.25,0.91,6.31,0.91,6.39c-0.47,9.64-3.72,16.16-10.23,20.49
			C143.55,122.53,139.02,123.92,134.1,123.93z M105.92,111.45c-0.18,0-0.35-0.09-0.44-0.26l-0.36-0.65
			c-0.47-0.85-0.93-1.69-1.39-2.54c-0.05-0.09-0.07-0.19-0.06-0.29l0.27-2.65c0.03-0.28,0.28-0.47,0.55-0.45
			c0.27,0.03,0.47,0.27,0.45,0.55l-0.25,2.49c0.43,0.8,0.87,1.6,1.31,2.4l0.36,0.65c0.13,0.24,0.04,0.55-0.2,0.68
			C106.09,111.43,106,111.45,105.92,111.45z M152.33,100.85c-0.28,0-0.5-0.22-0.5-0.5c0-2.68-0.25-4.84-0.73-6.28
			c-0.04-0.01-0.07-0.02-0.1-0.03c-1.26-0.42-2.06-1.02-2.66-2.01c-0.59-0.97-0.75-2.09-0.48-3.34c-6.94-6.61-14.88-7.92-22.98-3.79
			c-4.95,2.53-7.29,6.83-9.24,12.5c0.01,0.05,0,0.1-0.01,0.15c-0.06,0.32-0.12,0.63-0.16,0.95c-0.04,0.27-0.3,0.46-0.57,0.42
			c-0.27-0.04-0.46-0.29-0.42-0.57c0.04-0.28,0.09-0.55,0.14-0.83c-0.02-0.09-0.02-0.18,0.01-0.27c1.64-4.83,3.89-10.23,9.79-13.24
			c8.59-4.38,17-2.95,24.32,4.14c0.14,0.13,0.18,0.33,0.13,0.5c0,0.04,0,0.08-0.01,0.12c-0.25,1.05-0.14,1.94,0.33,2.73
			c0.47,0.78,1.09,1.24,2.11,1.58c0.17,0.03,0.24,0.04,0.3,0.06c0.15,0.04,0.27,0.16,0.33,0.3c0.59,1.56,0.89,3.88,0.89,6.89
			C152.83,100.63,152.6,100.85,152.33,100.85z"/>
	</g>
</g>
</svg>
